…
#### Aggregating across minutes to create a total activity variable for each day, and create a table showing these totals

``` r
accel_day_df <-
  accel_df %>%
  group_by(week, day_num, day) %>%
  summarize(total_day_activity = sum(activity_minutes))

accel_day_df # printing out the table; 35 observations
```

    ## # A tibble: 35 x 4
    ## # Groups:   week, day_num [35]
    ##     week day_num day       total_day_activity
    ##    <dbl>   <int> <chr>                  <dbl>
    ##  1     1       1 Monday                78828.
    ##  2     1       2 Tuesday              307094.
    ##  3     1       3 Wednesday            340115.
    ##  4     1       4 Thursday             355924.
    ##  5     1       5 Friday               480543.
    ##  6     1       6 Saturday             376254 
    ##  7     1       7 Sunday               631105 
    ##  8     2       1 Monday               295431 
    ##  9     2       2 Tuesday              423245 
    ## 10     2       3 Wednesday            440962 
    ## # ... with 25 more rows
…
